\relax 
\@writefile{lof}{\addvspace {10pt}}
\@writefile{lot}{\addvspace {10pt}}
\@writefile{toc}{\contentsline {chapter}{1937--39}{11}}
\@writefile{toc}{\contentsline {section}{22 de setembro.}{11}}
\newlabel{vale}{{\M@TitleReference {}{22 de setembro.}}{11}}
\newlabel{personalidade}{{\M@TitleReference {}{22 de setembro.}}{11}}
\@writefile{toc}{\contentsline {section}{23 de setembro.}{13}}
\@writefile{toc}{\contentsline {section}{23 de setembro.}{14}}
\@writefile{toc}{\contentsline {section}{26 de setembro.}{14}}
\newlabel{jornal}{{\M@TitleReference {}{26 de setembro.}}{14}}
\@writefile{toc}{\contentsline {section}{30 de setembro.}{16}}
\newlabel{mundo}{{\M@TitleReference {}{30 de setembro.}}{16}}
\@writefile{toc}{\contentsline {section}{30 de setembro.}{17}}
\@writefile{toc}{\contentsline {section}{2 de outubro.}{17}}
\@writefile{toc}{\contentsline {section}{4 de outubro.}{18}}
\newlabel{estabelecido}{{\M@TitleReference {}{4 de outubro.}}{18}}
\@writefile{toc}{\contentsline {section}{10 de outubro.}{19}}
\@writefile{toc}{\contentsline {section}{15 de outubro.}{19}}
\newlabel{inocente}{{\M@TitleReference {}{15 de outubro.}}{20}}
\@writefile{toc}{\contentsline {section}{17 de outubro.}{20}}
\newlabel{limites}{{\M@TitleReference {}{17 de outubro.}}{20}}
\@writefile{toc}{\contentsline {section}{18 de outubro.}{21}}
\@writefile{toc}{\contentsline {section}{20 de outubro.}{22}}
\newlabel{nudez}{{\M@TitleReference {}{20 de outubro.}}{23}}
\@writefile{toc}{\contentsline {section}{21 de outubro.}{23}}
\@writefile{toc}{\contentsline {section}{25 de outubro.}{24}}
\@writefile{toc}{\contentsline {section}{5 de novembro.}{24}}
\@writefile{toc}{\contentsline {section}{6 de novembro.}{24}}
\@writefile{toc}{\contentsline {section}{7 de novembro.}{25}}
\newlabel{abreviar}{{\M@TitleReference {}{7 de novembro.}}{25}}
\@writefile{toc}{\contentsline {section}{8 de novembro.}{25}}
\@writefile{toc}{\contentsline {section}{13 de novembro.}{26}}
\newlabel{mim}{{\M@TitleReference {}{13 de novembro.}}{26}}
\@writefile{toc}{\contentsline {section}{16 de novembro.}{27}}
\@writefile{toc}{\contentsline {section}{17 de novembro.}{27}}
\newlabel{esnobismo}{{\M@TitleReference {}{17 de novembro.}}{27}}
\newlabel{felicidade}{{\M@TitleReference {}{17 de novembro.}}{27}}
\@writefile{toc}{\contentsline {section}{22 de novembro.}{28}}
\@writefile{toc}{\contentsline {section}{Dezembro.}{28}}
\newlabel{filosofia}{{\M@TitleReference {}{Dezembro.}}{31}}
\@writefile{toc}{\contentsline {section}{Dezembro.}{32}}
\@writefile{toc}{\contentsline {section}{Dezembro.}{33}}
\newlabel{resfriado}{{\M@TitleReference {}{Dezembro.}}{34}}
\newlabel{exaltado}{{\M@TitleReference {}{Dezembro.}}{34}}
\newlabel{bordados}{{\M@TitleReference {}{Dezembro.}}{35}}
\@writefile{toc}{\contentsline {section}{Fevereiro de 38.}{35}}
\@writefile{toc}{\contentsline {section}{Fevereiro de 38.}{36}}
\newlabel{pretextos}{{\M@TitleReference {}{Fevereiro de 38.}}{36}}
\newlabel{destino}{{\M@TitleReference {}{Fevereiro de 38.}}{36}}
\newlabel{obra}{{\M@TitleReference {}{Fevereiro de 38.}}{36}}
\@writefile{toc}{\contentsline {section}{Abril de 38.}{37}}
\@writefile{toc}{\contentsline {section}{Abril.}{38}}
\@writefile{toc}{\contentsline {section}{Abril de 38.}{38}}
\@writefile{toc}{\contentsline {section}{Maio.}{38}}
\@writefile{toc}{\contentsline {section}{Maio.}{40}}
\@writefile{toc}{\contentsline {section}{Junho.}{41}}
\newlabel{fatal}{{\M@TitleReference {}{Junho.}}{44}}
\@writefile{toc}{\contentsline {section}{Junho.}{45}}
\@writefile{toc}{\contentsline {section}{Agosto.}{47}}
\newlabel{Karamazov}{{\M@TitleReference {}{Agosto.}}{48}}
\@writefile{toc}{\contentsline {section}{21 de agosto de 1938.}{49}}
\newlabel{morte}{{\M@TitleReference {}{21 de agosto de 1938.}}{50}}
\newlabel{estrada}{{\M@TitleReference {}{21 de agosto de 1938.}}{54}}
\newlabel{reflete}{{\M@TitleReference {}{21 de agosto de 1938.}}{57}}
\newlabel{animal}{{\M@TitleReference {}{21 de agosto de 1938.}}{59}}
\@writefile{toc}{\contentsline {section}{Dezembro de 38.}{60}}
\@writefile{toc}{\contentsline {section}{Domingo.}{61}}
\newlabel{agentes}{{\M@TitleReference {}{Domingo.}}{62}}
\newlabel{cigarro}{{\M@TitleReference {}{Domingo.}}{63}}
\newlabel{escapar}{{\M@TitleReference {}{Domingo.}}{64}}
\@writefile{toc}{\contentsline {section}{Dezembro.}{68}}
\newlabel{avessas}{{\M@TitleReference {}{Dezembro.}}{68}}
\newlabel{machadadas}{{\M@TitleReference {}{Dezembro.}}{69}}
\newlabel{templo}{{\M@TitleReference {}{Dezembro.}}{70}}
\newlabel{condenados}{{\M@TitleReference {}{Dezembro.}}{71}}
\newlabel{duvidosa}{{\M@TitleReference {}{Dezembro.}}{72}}
\newlabel{esteja}{{\M@TitleReference {}{Dezembro.}}{72}}
\newlabel{teatro}{{\M@TitleReference {}{Dezembro.}}{73}}
\@writefile{toc}{\contentsline {section}{1939.}{74}}
\@writefile{toc}{\contentsline {section}{Fevereiro.}{74}}
\@writefile{toc}{\contentsline {section}{Março.}{77}}
\newlabel{jardim}{{\M@TitleReference {}{Março.}}{77}}
\newlabel{tensos}{{\M@TitleReference {}{Março.}}{77}}
\@writefile{toc}{\contentsline {section}{Abril de 39.}{78}}
\newlabel{sangue}{{\M@TitleReference {}{Abril de 39.}}{78}}
\newlabel{beleza}{{\M@TitleReference {}{Abril de 39.}}{78}}
\newlabel{terras}{{\M@TitleReference {}{Abril de 39.}}{78}}
\newlabel{coreto}{{\M@TitleReference {}{Abril de 39.}}{78}}
\newlabel{mulheres}{{\M@TitleReference {}{Abril de 39.}}{81}}
\@writefile{toc}{\contentsline {part}{Apêndices}{83}}
\@writefile{lof}{\addvspace {10pt}}
\@writefile{lot}{\addvspace {10pt}}
\@writefile{toc}{\contentsline {chapter}{Posfácio, \emph  {por Nilson Silva}}{85}}
\@writefile{toc}{\contentsline {section}{O lugar dos cadernos na obra de um escritor}{85}}
\@writefile{toc}{\contentsline {section}{Filosofia dos limites}{93}}
\@writefile{toc}{\contentsline {section}{O absurdo e a revolta}{100}}
\@writefile{toc}{\contentsline {section}{O homem estrangeiro}{105}}
\@writefile{toc}{\contentsline {section}{Romance, mito da História}{111}}
\@writefile{toc}{\contentsline {section}{O romancista filósofo}{115}}
\@writefile{toc}{\contentsline {section}{Bibliografia}{120}}
\@setckpt{INPUTS}{
\setcounter{page}{123}
\setcounter{equation}{0}
\setcounter{enumi}{0}
\setcounter{enumii}{0}
\setcounter{enumiii}{0}
\setcounter{enumiv}{0}
\setcounter{footnote}{46}
\setcounter{mpfootnote}{0}
\setcounter{@memmarkcntra}{0}
\setcounter{storedpagenumber}{1}
\setcounter{book}{0}
\setcounter{part}{0}
\setcounter{chapter}{0}
\setcounter{section}{0}
\setcounter{subsection}{0}
\setcounter{subsubsection}{0}
\setcounter{paragraph}{0}
\setcounter{subparagraph}{0}
\setcounter{@ppsavesec}{0}
\setcounter{@ppsaveapp}{0}
\setcounter{vslineno}{0}
\setcounter{poemline}{0}
\setcounter{modulo@vs}{0}
\setcounter{memfvsline}{0}
\setcounter{verse}{0}
\setcounter{chrsinstr}{0}
\setcounter{poem}{0}
\setcounter{newflo@tctr}{4}
\setcounter{@contsubnum}{0}
\setcounter{maxsecnumdepth}{1}
\setcounter{sidefootnote}{0}
\setcounter{pagenote}{0}
\setcounter{pagenoteshadow}{0}
\setcounter{memfbvline}{0}
\setcounter{bvlinectr}{0}
\setcounter{cp@cntr}{0}
\setcounter{ism@mctr}{0}
\setcounter{xsm@mctr}{0}
\setcounter{csm@mctr}{0}
\setcounter{ksm@mctr}{0}
\setcounter{xksm@mctr}{0}
\setcounter{cksm@mctr}{0}
\setcounter{msm@mctr}{0}
\setcounter{xmsm@mctr}{0}
\setcounter{cmsm@mctr}{0}
\setcounter{bsm@mctr}{0}
\setcounter{workm@mctr}{0}
\setcounter{sheetsequence}{123}
\setcounter{lastsheet}{134}
\setcounter{lastpage}{134}
\setcounter{figure}{0}
\setcounter{lofdepth}{1}
\setcounter{table}{0}
\setcounter{lotdepth}{1}
\setcounter{DefaultLines}{2}
\setcounter{L@lines}{0}
\setcounter{lips@count}{0}
\setcounter{pp@next@reset}{0}
\setcounter{@sectionNumCenter}{0}
\setcounter{ContinuedFloat}{0}
\setcounter{PWSTtable}{0}
}
