\relax 
\providecommand*{\memsetcounter}[2]{}
\catcode`"\active
\select@language{brazilian}
\@writefile{toc}{\select@language{brazilian}}
\@writefile{lof}{\select@language{brazilian}}
\@writefile{lot}{\select@language{brazilian}}
\@writefile{toc}{\contentsline {part}{{\def \penalty -\@M {}A desmedida na medida}}{9}}
\@input{INPUTS.aux}
\@input{CRONOLOGIA.aux}
\ttl@finishall
\@input{PUBLICIDADE.aux}
\memsetcounter{lastsheet}{134}
\memsetcounter{lastpage}{134}
